DS 202 HW 5
…
Find the daily sales liquor sales in Ames in 2019. Summarize the number of sales, volume of liquor sold, and amount of money spent.

ia %>%
  group_by(month, day) %>%
  summarize(num_sales = n(), total_volume = sum(`Volume Sold (Gallons)`),
            total_money = sum(`Sale (Dollars)`)) -> ia_daily

ia_daily %>%
  arrange(desc(total_volume))

## # A tibble: 157 x 5
## # Groups:   month [12]
##    month   day num_sales total_volume total_money
##    <dbl> <dbl>     <int>        <dbl>       <dbl>
##  1     7    31       475        4023.     249623.
##  2    12    26      1247        3391.     215595.
##  3     4    10      1015        3234.     166146.
##  4     2    13       962        3029.     147731.
##  5    11    13       505        2962.     180519.
##  6     4    24       497        2911.     152501.
##  7     3     6      1024        2863.     163143.
##  8     4     3      1044        2669.     149549.
##  9     3    27       962        2621.     129834.
## 10     9    25       334        2589.     132360.
## #  with 147 more rows
…
